^C:\CPPWORK_MATAN\HW16\DATABASE\DATABASE\SOURCEA.CPP
C:\CPPWORK_MATAN\HW16\DATABASE\DATABASE\DEBUG\VC120.PDB
C:\CPPWORK_MATAN\HW16\DATABASE\DATABASE\DEBUG\VC120.IDB
C:\CPPWORK_MATAN\HW16\DATABASE\DATABASE\DEBUG\SOURCEA.OBJ
^C:\CPPWORK_MATAN\HW16\DATABASE\DATABASE\SQLITE3.C
C:\CPPWORK_MATAN\HW16\DATABASE\DATABASE\DEBUG\VC120.PDB
C:\CPPWORK_MATAN\HW16\DATABASE\DATABASE\DEBUG\VC120.IDB
C:\CPPWORK_MATAN\HW16\DATABASE\DATABASE\DEBUG\SQLITE3.OBJ
^C:\CPPWORK_MATAN\HW16\DATABASE\DATABASE\SOURCEA.CPP|C:\CPPWORK_MATAN\HW16\DATABASE\DATABASE\SOURCEB.CPP
C:\CPPWORK_MATAN\HW16\DATABASE\DATABASE\DEBUG\VC120.PDB
C:\CPPWORK_MATAN\HW16\DATABASE\DATABASE\DEBUG\VC120.IDB
C:\CPPWORK_MATAN\HW16\DATABASE\DATABASE\DEBUG\SOURCEA.OBJ
C:\CPPWORK_MATAN\HW16\DATABASE\DATABASE\DEBUG\SOURCEB.OBJ
^C:\CPPWORK_MATAN\HW16\DATABASE\DATABASE\SOURCEB.CPP
C:\CPPWORK_MATAN\HW16\DATABASE\DATABASE\DEBUG\VC120.PDB
C:\CPPWORK_MATAN\HW16\DATABASE\DATABASE\DEBUG\VC120.IDB
C:\CPPWORK_MATAN\HW16\DATABASE\DATABASE\DEBUG\SOURCEB.OBJ
